@startuml

title __BILLPROCESSOR's Class Diagram__\n

  namespace  {
    class BillProcessorMain {
    }
  }
  

  namespace  {
    namespace ommons {
      class commons.Constants {
      }
    }
  }
  

  namespace  {
    namespace odel {
      class model.BillModel {
      }
    }
  }
  

  namespace  {
    namespace odel {
      class model.ProductModel {
      }
    }
  }
  

  namespace  {
    namespace odel {
      class model.UserModel {
      }
    }
  }
  

  namespace  {
    namespace ervice {
      class service.BillProcessorService {
      }
    }
  }
  

  namespace  {
    namespace ervice {
      class service.BillingPredicate {
      }
    }
  }
  

  namespace  {
    namespace rc.main.java {
      class src.main.java.BillProcessorMain {
      }
    }
  }
  

  namespace  {
    namespace rc.main.java {
      namespace commons {
        class src.main.java.commons.Constants {
        }
      }
    }
  }
  

  namespace  {
    namespace rc.main.java {
      namespace model {
        class src.main.java.model.BillModel {
        }
      }
    }
  }
  

  namespace  {
    namespace rc.main.java {
      namespace model {
        class src.main.java.model.ProductModel {
        }
      }
    }
  }
  

  namespace  {
    namespace rc.main.java {
      namespace model {
        class src.main.java.model.UserModel {
        }
      }
    }
  }
  

  namespace  {
    namespace rc.main.java {
      namespace service {
        class src.main.java.service.BillProcessorService {
        }
      }
    }
  }
  

  namespace  {
    namespace rc.main.java {
      namespace service {
        class src.main.java.service.BillingPredicate {
        }
      }
    }
  }
  

  namespace  {
    namespace rc.test.java {
      class src.test.java.BillProcessorMainTest {
      }
    }
  }
  

  namespace  {
    namespace rc.test.java {
      namespace commons {
        class src.test.java.commons.ConstantsTest {
        }
      }
    }
  }
  

  namespace  {
    namespace rc.test.java {
      namespace service {
        class src.test.java.service.BillProcessorServiceTest {
        }
      }
    }
  }
  

  namespace  {
    namespace rc.test.java {
      namespace service {
        class src.test.java.service.BillingPredicateTest {
        }
      }
    }
  }
  

  model.BillModel o-- model.UserModel : user


right footer


PlantUML diagram generated by SketchIt! (https://bitbucket.org/pmesmeur/sketch.it)
For more information about this tool, please contact philippe.mesmeur@gmail.com
endfooter

@enduml
